{
  "version": "0.2.0",
  "configurations": [
    {
      "name": "Debug CRA Tests",
      "type": "node",
      "request": "launch",
      "runtimeExecutable": "${workspaceRoot}/node_modules/.bin/react-scripts",
      "runtimeArgs": [
        "--inspect-brk",
        "test"
      ],
      "env": [
        "NODE_PATH=src"
      ],
      "args": [
        "--runInBand",
        "--no-cache",
        "--env=jsdom"
      ],
      "cwd": "${workspaceRoot}",
      "protocol": "inspector",
      "console": "integratedTerminal",
      "internalConsoleOptions": "neverOpen"
    }
  ]
}